{
    "build": {
      "cpu": "cortex-m3",
      "f_cpu": "96000000L",
      "mcu": "lpc1754"
    },
    "connectivity": [
      "can",
      "ethernet"
    ],
    "debug": {
      "jlink_device": "LPC1754",
      "pyocd_target": "lpc1754",
      "svd_path": "LPC176x5x_v0.2.svd"
    },
    "frameworks": [
      "mbed"
    ],
    "name": "NXP mbed LPC1754",
    "upload": {
      "maximum_ram_size": 32768,
      "maximum_size": 131072,
      "protocol": "mbed",
      "protocols": [
        "jlink",
        "blackmagic",
        "cmsis-dap",
        "mbed"
      ]
    },
    "url": "http://developer.mbed.org/platforms/mbed-LPC1768/",
    "vendor": "NXP"
  }